[
  {
    "file": "test_logging.ml",
    "title": "alpha: check_signature",
    "tags": [
      "regression",
      "protocol",
      "regression",
      "logging"
    ],
    "successful_runs": {
      "total_time": "31919",
      "count": "1"
    },
    "failed_runs": {
      "total_time": "0",
      "count": "0"
    }
  },
  {
    "file": "test_logging.ml",
    "title": "alpha: ediv",
    "tags": [
      "regression",
      "protocol",
      "regression",
      "logging"
    ],
    "successful_runs": {
      "total_time": "36359",
      "count": "1"
    },
    "failed_runs": {
      "total_time": "0",
      "count": "0"
    }
  },
  {
    "file": "test_logging.ml",
    "title": "alpha: pexec",
    "tags": [
      "regression",
      "protocol",
      "regression",
      "logging"
    ],
    "successful_runs": {
      "total_time": "29520",
      "count": "1"
    },
    "failed_runs": {
      "total_time": "0",
      "count": "0"
    }
  },
  {
    "file": "test_logging.ml",
    "title": "014_PtKathma: auction",
    "tags": [
      "regression",
      "protocol",
      "regression",
      "logging"
    ],
    "successful_runs": {
      "total_time": "36645",
      "count": "1"
    },
    "failed_runs": {
      "total_time": "0",
      "count": "0"
    }
  },
  {
    "file": "test_logging.ml",
    "title": "014_PtKathma: dipn",
    "tags": [
      "regression",
      "protocol",
      "regression",
      "logging"
    ],
    "successful_runs": {
      "total_time": "19688",
      "count": "1"
    },
    "failed_runs": {
      "total_time": "0",
      "count": "0"
    }
  },
  {
    "file": "test_logging.ml",
    "title": "014_PtKathma: view_toplevel_lib",
    "tags": [
      "regression",
      "protocol",
      "regression",
      "logging"
    ],
    "successful_runs": {
      "total_time": "16951",
      "count": "1"
    },
    "failed_runs": {
      "total_time": "0",
      "count": "0"
    }
  },
  {
    "file": "test_logging.ml",
    "title": "014_PtKathma: opt_map",
    "tags": [
      "regression",
      "protocol",
      "regression",
      "logging"
    ],
    "successful_runs": {
      "total_time": "17480",
      "count": "1"
    },
    "failed_runs": {
      "total_time": "0",
      "count": "0"
    }
  },
  {
    "file": "basic.ml",
    "title": "Alpha: node initialization (full mode)",
    "tags": [
      "alpha",
      "basic",
      "node",
      "full"
    ],
    "successful_runs": {
      "total_time": "18475229",
      "count": "1"
    },
    "failed_runs": {
      "total_time": "0",
      "count": "0"
    }
  },
  {
    "file": "client_commands.ml",
    "title": "Jakarta: Simulation of failing operation",
    "tags": [
      "jakarta",
      "client",
      "simulation",
      "failing"
    ],
    "successful_runs": {
      "total_time": "9432320",
      "count": "1"
    },
    "failed_runs": {
      "total_time": "0",
      "count": "0"
    }
  },
  {
    "file": "client_commands.ml",
    "title": "Alpha: Injecting of failing operation with force",
    "tags": [
      "alpha",
      "client",
      "injection",
      "failing",
      "force"
    ],
    "successful_runs": {
      "total_time": "9411799",
      "count": "1"
    },
    "failed_runs": {
      "total_time": "0",
      "count": "0"
    }
  },
  {
    "file": "client_commands.ml",
    "title": "Ithaca: Transfer from public key hash alias",
    "tags": [
      "ithaca",
      "client",
      "alias",
      "transfer"
    ],
    "successful_runs": {
      "total_time": "20394032",
      "count": "1"
    },
    "failed_runs": {
      "total_time": "0",
      "count": "0"
    }
  },
  {
    "file": "synchronisation_heuristic.ml",
    "title": "Alpha: Check prevalidator start",
    "tags": [
      "alpha",
      "bootstrap",
      "node",
      "prevalidator"
    ],
    "successful_runs": {
      "total_time": "74858959",
      "count": "1"
    },
    "failed_runs": {
      "total_time": "0",
      "count": "0"
    }
  },
  {
    "file": "light.ml",
    "title": "Alpha: (Light) RPC get's location",
    "tags": [
      "alpha",
      "light",
      "location",
      "rpc",
      "get"
    ],
    "successful_runs": {
      "total_time": "15906805",
      "count": "1"
    },
    "failed_runs": {
      "total_time": "0",
      "count": "0"
    }
  },
  {
    "file": "mockup.ml",
    "title": "Alpha: (Mockup) Transfer (empty, asynchronous)",
    "tags": [
      "alpha",
      "mockup",
      "client",
      "empty",
      "bake_for",
      "asynchronous"
    ],
    "successful_runs": {
      "total_time": "2465579",
      "count": "1"
    },
    "failed_runs": {
      "total_time": "0",
      "count": "0"
    }
  },
  {
    "file": "mockup.ml",
    "title": "Ithaca: (Mockup) Multi transfer/multi baking (asynchronous)",
    "tags": [
      "ithaca",
      "mockup",
      "client",
      "transfer",
      "asynchronous"
    ],
    "successful_runs": {
      "total_time": "50783659",
      "count": "1"
    },
    "failed_runs": {
      "total_time": "0",
      "count": "0"
    }
  },
  {
    "file": "mockup.ml",
    "title": "Alpha: (Mockup) origination fees from unrevealed",
    "tags": [
      "alpha",
      "mockup",
      "client",
      "transfer"
    ],
    "successful_runs": {
      "total_time": "4876108",
      "count": "1"
    },
    "failed_runs": {
      "total_time": "0",
      "count": "0"
    }
  },
  {
    "file": "mockup.ml",
    "title": "Kathmandu: (Mockup) multiple transfer simulation",
    "tags": [
      "kathmandu",
      "mockup",
      "client",
      "multiple",
      "transfer"
    ],
    "successful_runs": {
      "total_time": "2113967",
      "count": "1"
    },
    "failed_runs": {
      "total_time": "0",
      "count": "0"
    }
  },
  {
    "file": "mockup.ml",
    "title": "Kathmandu: (Mockup) Load storage and input from file.",
    "tags": [
      "kathmandu",
      "mockup",
      "client",
      "run_script"
    ],
    "successful_runs": {
      "total_time": "1979852",
      "count": "1"
    },
    "failed_runs": {
      "total_time": "0",
      "count": "0"
    }
  },
  {
    "file": "mockup.ml",
    "title": "(Jakarta -> Alpha) constant migration",
    "tags": [
      "mockup",
      "migration"
    ],
    "successful_runs": {
      "total_time": "5598767",
      "count": "1"
    },
    "failed_runs": {
      "total_time": "0",
      "count": "0"
    }
  },
  {
    "file": "mockup.ml",
    "title": "Alpha: (Mockup) Calling a contract with a global constant failure",
    "tags": [
      "alpha",
      "mockup",
      "client",
      "global_constant"
    ],
    "successful_runs": {
      "total_time": "1482159",
      "count": "1"
    },
    "failed_runs": {
      "total_time": "0",
      "count": "0"
    }
  },
  {
    "file": "proxy.ml",
    "title": "Alpha: (Proxy) Bake",
    "tags": [
      "alpha",
      "proxy",
      "bake"
    ],
    "successful_runs": {
      "total_time": "14889331",
      "count": "1"
    },
    "failed_runs": {
      "total_time": "0",
      "count": "0"
    }
  },
  {
    "file": "proxy.ml",
    "title": "Alpha: (Proxy) (/chains/main/blocks/head/helpers/endorsing_rights) No useless RPC call",
    "tags": [
      "alpha",
      "proxy",
      "rpc",
      "get"
    ],
    "successful_runs": {
      "total_time": "6592400",
      "count": "1"
    },
    "failed_runs": {
      "total_time": "0",
      "count": "0"
    }
  },
  {
    "file": "proxy.ml",
    "title": "Alpha: (Proxy) (/chains/main/blocks/head/votes/total_voting_power) No useless RPC call",
    "tags": [
      "alpha",
      "proxy",
      "rpc",
      "get"
    ],
    "successful_runs": {
      "total_time": "5792391",
      "count": "1"
    },
    "failed_runs": {
      "total_time": "0",
      "count": "0"
    }
  },
  {
    "file": "proxy.ml",
    "title": "Kathmandu: (Proxy) (/chains/main/blocks/head/votes/ballot_list) No useless RPC call",
    "tags": [
      "kathmandu",
      "proxy",
      "rpc",
      "get"
    ],
    "successful_runs": {
      "total_time": "6752274",
      "count": "1"
    },
    "failed_runs": {
      "total_time": "0",
      "count": "0"
    }
  },
  {
    "file": "proxy.ml",
    "title": "Jakarta: (Proxy) (/chains/main/blocks/head/helpers/endorsing_rights) No useless RPC call",
    "tags": [
      "jakarta",
      "proxy",
      "rpc",
      "get"
    ],
    "successful_runs": {
      "total_time": "7074172",
      "count": "1"
    },
    "failed_runs": {
      "total_time": "0",
      "count": "0"
    }
  },
  {
    "file": "proxy.ml",
    "title": "Kathmandu: (Proxy) (/chains/main/blocks/head/helpers/baking_rights) Cache at most once",
    "tags": [
      "kathmandu",
      "proxy",
      "rpc",
      "get"
    ],
    "successful_runs": {
      "total_time": "6747885",
      "count": "1"
    },
    "failed_runs": {
      "total_time": "0",
      "count": "0"
    }
  },
  {
    "file": "proxy.ml",
    "title": "Jakarta: (Proxy) (/chains/main/blocks/head/helpers/baking_rights?all=true) Cache at most once",
    "tags": [
      "jakarta",
      "proxy",
      "rpc",
      "get"
    ],
    "successful_runs": {
      "total_time": "6893162",
      "count": "1"
    },
    "failed_runs": {
      "total_time": "0",
      "count": "0"
    }
  },
  {
    "file": "proxy.ml",
    "title": "Ithaca: (Proxy) (/chains/main/blocks/head/helpers/baking_rights?all=true) Cache at most once",
    "tags": [
      "ithaca",
      "proxy",
      "rpc",
      "get"
    ],
    "successful_runs": {
      "total_time": "7338696",
      "count": "1"
    },
    "failed_runs": {
      "total_time": "0",
      "count": "0"
    }
  },
  {
    "file": "proxy.ml",
    "title": "Alpha: (Proxy) (/chains/main/blocks/head/context/constants) Cache at most once",
    "tags": [
      "alpha",
      "proxy",
      "rpc",
      "get"
    ],
    "successful_runs": {
      "total_time": "5849349",
      "count": "1"
    },
    "failed_runs": {
      "total_time": "0",
      "count": "0"
    }
  },
  {
    "file": "proxy.ml",
    "title": "Ithaca: (Proxy) (/chains/main/blocks/head/context/constants/errors) Cache at most once",
    "tags": [
      "ithaca",
      "proxy",
      "rpc",
      "get"
    ],
    "successful_runs": {
      "total_time": "6524348",
      "count": "1"
    },
    "failed_runs": {
      "total_time": "0",
      "count": "0"
    }
  },
  {
    "file": "proxy.ml",
    "title": "Jakarta: (Proxy) (/chains/main/blocks/head/helpers/endorsing_rights) Cache at most once",
    "tags": [
      "jakarta",
      "proxy",
      "rpc",
      "get"
    ],
    "successful_runs": {
      "total_time": "7603919",
      "count": "1"
    },
    "failed_runs": {
      "total_time": "0",
      "count": "0"
    }
  },
  {
    "file": "proxy.ml",
    "title": "Jakarta: (Proxy) (/chains/main/blocks/head/votes/current_quorum) Cache at most once",
    "tags": [
      "jakarta",
      "proxy",
      "rpc",
      "get"
    ],
    "successful_runs": {
      "total_time": "6852960",
      "count": "1"
    },
    "failed_runs": {
      "total_time": "0",
      "count": "0"
    }
  },
  {
    "file": "proxy.ml",
    "title": "Ithaca: (Proxy) (/chains/main/blocks/head/votes/current_quorum) Cache at most once",
    "tags": [
      "ithaca",
      "proxy",
      "rpc",
      "get"
    ],
    "successful_runs": {
      "total_time": "7554024",
      "count": "1"
    },
    "failed_runs": {
      "total_time": "0",
      "count": "0"
    }
  },
  {
    "file": "proxy.ml",
    "title": "Kathmandu: (Proxy) (/chains/main/blocks/head/votes/listings) Cache at most once",
    "tags": [
      "kathmandu",
      "proxy",
      "rpc",
      "get"
    ],
    "successful_runs": {
      "total_time": "7453152",
      "count": "1"
    },
    "failed_runs": {
      "total_time": "0",
      "count": "0"
    }
  },
  {
    "file": "proxy.ml",
    "title": "Kathmandu: (Proxy) Compare RPC get",
    "tags": [
      "kathmandu",
      "proxy",
      "rpc",
      "get"
    ],
    "successful_runs": {
      "total_time": "38059625",
      "count": "1"
    },
    "failed_runs": {
      "total_time": "0",
      "count": "0"
    }
  },
  {
    "file": "proxy.ml",
    "title": "Jakarta: (Proxy) split_key heuristic",
    "tags": [
      "jakarta",
      "proxy",
      "rpc",
      "get"
    ],
    "successful_runs": {
      "total_time": "30082044",
      "count": "1"
    },
    "failed_runs": {
      "total_time": "0",
      "count": "0"
    }
  },
  {
    "file": "proxy_server_test.ml",
    "title": "Alpha: proxy_server redirect curl",
    "tags": [
      "alpha",
      "redirect"
    ],
    "successful_runs": {
      "total_time": "7649226",
      "count": "1"
    },
    "failed_runs": {
      "total_time": "0",
      "count": "0"
    }
  },
  {
    "file": "p2p.ml",
    "title": "Alpha: check --connection=1 option",
    "tags": [
      "alpha",
      "p2p",
      "cli",
      "connections"
    ],
    "successful_runs": {
      "total_time": "10928560",
      "count": "1"
    },
    "failed_runs": {
      "total_time": "0",
      "count": "0"
    }
  },
  {
    "file": "baking.ml",
    "title": "Kathmandu: baking ordering",
    "tags": [
      "kathmandu",
      "baking",
      "ordering"
    ],
    "successful_runs": {
      "total_time": "26751157",
      "count": "1"
    },
    "failed_runs": {
      "total_time": "0",
      "count": "0"
    }
  },
  {
    "file": "baking.ml",
    "title": "Ithaca: wrong branch operation dismissal",
    "tags": [
      "ithaca",
      "baking",
      "branch"
    ],
    "successful_runs": {
      "total_time": "20249281",
      "count": "1"
    },
    "failed_runs": {
      "total_time": "0",
      "count": "0"
    }
  },
  {
    "file": "prevalidator.ml",
    "title": "Alpha: Manager_restriction_propagation",
    "tags": [
      "alpha",
      "mempool",
      "manager_restriction",
      "propagation"
    ],
    "successful_runs": {
      "total_time": "35685068",
      "count": "1"
    },
    "failed_runs": {
      "total_time": "0",
      "count": "0"
    }
  },
  {
    "file": "prevalidator.ml",
    "title": "Kathmandu: Manager_restriction_flush",
    "tags": [
      "kathmandu",
      "mempool",
      "manager_restriction",
      "flush"
    ],
    "successful_runs": {
      "total_time": "23288479",
      "count": "1"
    },
    "failed_runs": {
      "total_time": "0",
      "count": "0"
    }
  },
  {
    "file": "prevalidator.ml",
    "title": "Jakarta: Manager_restriction_ban",
    "tags": [
      "jakarta",
      "mempool",
      "manager_restriction",
      "ban"
    ],
    "successful_runs": {
      "total_time": "17208618",
      "count": "1"
    },
    "failed_runs": {
      "total_time": "0",
      "count": "0"
    }
  },
  {
    "file": "prevalidator.ml",
    "title": "Alpha: Max refused operations branch_refused",
    "tags": [
      "alpha",
      "mempool",
      "refused",
      "max",
      "branch_refused"
    ],
    "successful_runs": {
      "total_time": "35040581",
      "count": "1"
    },
    "failed_runs": {
      "total_time": "0",
      "count": "0"
    }
  },
  {
    "file": "prevalidator.ml",
    "title": "Kathmandu: mempool ban operation",
    "tags": [
      "kathmandu",
      "mempool",
      "node",
      "ban"
    ],
    "successful_runs": {
      "total_time": "40774895",
      "count": "1"
    },
    "failed_runs": {
      "total_time": "0",
      "count": "0"
    }
  },
  {
    "file": "prevalidator.ml",
    "title": "Alpha: mempool ban operation",
    "tags": [
      "alpha",
      "mempool",
      "node",
      "ban"
    ],
    "successful_runs": {
      "total_time": "42422675",
      "count": "1"
    },
    "failed_runs": {
      "total_time": "0",
      "count": "0"
    }
  },
  {
    "file": "prevalidator.ml",
    "title": "Ithaca: mempool unban operation and reinject",
    "tags": [
      "ithaca",
      "mempool",
      "node",
      "ban",
      "reinject"
    ],
    "successful_runs": {
      "total_time": "68558186",
      "count": "1"
    },
    "failed_runs": {
      "total_time": "0",
      "count": "0"
    }
  },
  {
    "file": "prevalidator.ml",
    "title": "Alpha: mempool unban all operations",
    "tags": [
      "alpha",
      "mempool",
      "node",
      "ban"
    ],
    "successful_runs": {
      "total_time": "46504300",
      "count": "1"
    },
    "failed_runs": {
      "total_time": "0",
      "count": "0"
    }
  },
  {
    "file": "prevalidator.ml",
    "title": "Jakarta: Test prefiltered limits of mempool",
    "tags": [
      "jakarta",
      "mempool",
      "gc",
      "limit"
    ],
    "successful_runs": {
      "total_time": "46097584",
      "count": "1"
    },
    "failed_runs": {
      "total_time": "0",
      "count": "0"
    }
  },
  {
    "file": "prevalidator.ml",
    "title": "Ithaca: Test prefiltered limits of mempool after a remove/replace",
    "tags": [
      "ithaca",
      "mempool",
      "gc",
      "limit",
      "replace",
      "remove"
    ],
    "successful_runs": {
      "total_time": "38635459",
      "count": "1"
    },
    "failed_runs": {
      "total_time": "0",
      "count": "0"
    }
  },
  {
    "file": "prevalidator.ml",
    "title": "Ithaca: Reclassify branch_delayed operation with wrong signature",
    "tags": [
      "ithaca",
      "mempool",
      "wrong",
      "signature"
    ],
    "successful_runs": {
      "total_time": "26717384",
      "count": "1"
    },
    "failed_runs": {
      "total_time": "0",
      "count": "0"
    }
  },
  {
    "file": "prevalidator.ml",
    "title": "Ithaca: Precheck refused an operation which empties a balance",
    "tags": [
      "ithaca",
      "mempool",
      "precheck",
      "empty",
      "balance"
    ],
    "successful_runs": {
      "total_time": "13809823",
      "count": "1"
    },
    "failed_runs": {
      "total_time": "0",
      "count": "0"
    }
  },
  {
    "file": "prevalidator.ml",
    "title": "Kathmandu: Run batched operations before injecting them",
    "tags": [
      "kathmandu",
      "forge",
      "mempool",
      "batch",
      "run_operation"
    ],
    "successful_runs": {
      "total_time": "15803074",
      "count": "1"
    },
    "failed_runs": {
      "total_time": "0",
      "count": "0"
    }
  },
  {
    "file": "prevalidator.ml",
    "title": "Jakarta: mempool do not reclassify",
    "tags": [
      "jakarta",
      "mempool",
      "node",
      "filter",
      "refused",
      "applied"
    ],
    "successful_runs": {
      "total_time": "23721584",
      "count": "1"
    },
    "failed_runs": {
      "total_time": "0",
      "count": "0"
    }
  },
  {
    "file": "prevalidator.ml",
    "title": "Kathmandu: Test request_operations rpc",
    "tags": [
      "kathmandu",
      "mempool",
      "request_operations"
    ],
    "successful_runs": {
      "total_time": "15751217",
      "count": "1"
    },
    "failed_runs": {
      "total_time": "0",
      "count": "0"
    }
  },
  {
    "file": "dal.ml",
    "title": "Alpha: Testing data availability layer functionality  (feature_flag_is_disabled)",
    "tags": [
      "regression",
      "alpha",
      "dal",
      "dal",
      "feature_flag_is_disabled"
    ],
    "successful_runs": {
      "total_time": "31011141",
      "count": "1"
    },
    "failed_runs": {
      "total_time": "0",
      "count": "0"
    }
  },
  {
    "file": "stresstest_command.ml",
    "title": "Alpha: stresstest multiple nodes",
    "tags": [
      "alpha",
      "stresstest",
      "multiple_nodes"
    ],
    "successful_runs": {
      "total_time": "59782181",
      "count": "1"
    },
    "failed_runs": {
      "total_time": "0",
      "count": "0"
    }
  },
  {
    "file": "encoding.ml",
    "title": "Kathmandu: protocol encoding regression test: block_header.raw",
    "tags": [
      "regression",
      "kathmandu",
      "encoding",
      "protocol"
    ],
    "successful_runs": {
      "total_time": "2479312",
      "count": "1"
    },
    "failed_runs": {
      "total_time": "0",
      "count": "0"
    }
  },
  {
    "file": "encoding.ml",
    "title": "Jakarta: protocol encoding regression test: block_header.raw",
    "tags": [
      "regression",
      "jakarta",
      "encoding",
      "protocol"
    ],
    "successful_runs": {
      "total_time": "2030220",
      "count": "1"
    },
    "failed_runs": {
      "total_time": "0",
      "count": "0"
    }
  },
  {
    "file": "encoding.ml",
    "title": "Alpha: protocol encoding regression test: gas",
    "tags": [
      "regression",
      "alpha",
      "encoding",
      "protocol"
    ],
    "successful_runs": {
      "total_time": "5630897",
      "count": "1"
    },
    "failed_runs": {
      "total_time": "0",
      "count": "0"
    }
  },
  {
    "file": "encoding.ml",
    "title": "Ithaca: protocol encoding regression test: gas",
    "tags": [
      "regression",
      "ithaca",
      "encoding",
      "protocol"
    ],
    "successful_runs": {
      "total_time": "5638026",
      "count": "1"
    },
    "failed_runs": {
      "total_time": "0",
      "count": "0"
    }
  },
  {
    "file": "encoding.ml",
    "title": "Kathmandu: protocol encoding regression test: operation",
    "tags": [
      "regression",
      "kathmandu",
      "encoding",
      "protocol"
    ],
    "successful_runs": {
      "total_time": "29556979",
      "count": "1"
    },
    "failed_runs": {
      "total_time": "0",
      "count": "0"
    }
  },
  {
    "file": "encoding.ml",
    "title": "Jakarta: protocol encoding regression test: operation",
    "tags": [
      "regression",
      "jakarta",
      "encoding",
      "protocol"
    ],
    "successful_runs": {
      "total_time": "29408804",
      "count": "1"
    },
    "failed_runs": {
      "total_time": "0",
      "count": "0"
    }
  },
  {
    "file": "encoding.ml",
    "title": "Alpha: protocol encoding regression test: raw_level",
    "tags": [
      "regression",
      "alpha",
      "encoding",
      "protocol"
    ],
    "successful_runs": {
      "total_time": "5505264",
      "count": "1"
    },
    "failed_runs": {
      "total_time": "0",
      "count": "0"
    }
  },
  {
    "file": "encoding.ml",
    "title": "Ithaca: protocol encoding regression test: raw_level",
    "tags": [
      "regression",
      "ithaca",
      "encoding",
      "protocol"
    ],
    "successful_runs": {
      "total_time": "4606619",
      "count": "1"
    },
    "failed_runs": {
      "total_time": "0",
      "count": "0"
    }
  },
  {
    "file": "encoding.ml",
    "title": "Kathmandu: protocol encoding regression test: vote.ballot",
    "tags": [
      "regression",
      "kathmandu",
      "encoding",
      "protocol"
    ],
    "successful_runs": {
      "total_time": "5545392",
      "count": "1"
    },
    "failed_runs": {
      "total_time": "0",
      "count": "0"
    }
  },
  {
    "file": "encoding.ml",
    "title": "Jakarta: protocol encoding regression test: vote.ballot",
    "tags": [
      "regression",
      "jakarta",
      "encoding",
      "protocol"
    ],
    "successful_runs": {
      "total_time": "5623569",
      "count": "1"
    },
    "failed_runs": {
      "total_time": "0",
      "count": "0"
    }
  },
  {
    "file": "tenderbake.ml",
    "title": "Alpha: Tenderbake transfer - baking 2",
    "tags": [
      "alpha",
      "baking",
      "tenderbake"
    ],
    "successful_runs": {
      "total_time": "17708841",
      "count": "1"
    },
    "failed_runs": {
      "total_time": "0",
      "count": "0"
    }
  },
  {
    "file": "tenderbake.ml",
    "title": "Alpha: Tenderbake low level commands",
    "tags": [
      "alpha",
      "propose",
      "endorse",
      "preendorse",
      "tenderbake",
      "low_level"
    ],
    "successful_runs": {
      "total_time": "17037646",
      "count": "1"
    },
    "failed_runs": {
      "total_time": "0",
      "count": "0"
    }
  },
  {
    "file": "forge.ml",
    "title": "Alpha: forge",
    "tags": [
      "alpha",
      "forge",
      "transfer"
    ],
    "successful_runs": {
      "total_time": "10730075",
      "count": "1"
    },
    "failed_runs": {
      "total_time": "0",
      "count": "0"
    }
  },
  {
    "file": "light.ml",
    "title": "mode light endpoint not in sources",
    "tags": [
      "client",
      "light",
      "cli"
    ],
    "successful_runs": {
      "total_time": "1110543",
      "count": "1"
    },
    "failed_runs": {
      "total_time": "0",
      "count": "0"
    }
  },
  {
    "file": "p2p.ml",
    "title": "p2p-maintenance-init-expected_connections",
    "tags": [
      "p2p",
      "node",
      "maintenance"
    ],
    "successful_runs": {
      "total_time": "21488971",
      "count": "1"
    },
    "failed_runs": {
      "total_time": "0",
      "count": "0"
    }
  },
  {
    "file": "RPC_test.ml",
    "title": "Binary RPC regression tests",
    "tags": [
      "regression",
      "rpc",
      "regression",
      "binary"
    ],
    "successful_runs": {
      "total_time": "16416724",
      "count": "1"
    },
    "failed_runs": {
      "total_time": "0",
      "count": "0"
    }
  },
  {
    "file": "RPC_test.ml",
    "title": "Jakarta: (mode client) RPC regression tests: delegates",
    "tags": [
      "regression",
      "jakarta",
      "rpc",
      "client",
      "delegates"
    ],
    "successful_runs": {
      "total_time": "39518191",
      "count": "1"
    },
    "failed_runs": {
      "total_time": "0",
      "count": "0"
    }
  },
  {
    "file": "RPC_test.ml",
    "title": "Kathmandu: (mode client) RPC regression tests: votes",
    "tags": [
      "regression",
      "kathmandu",
      "rpc",
      "client",
      "votes"
    ],
    "successful_runs": {
      "total_time": "48753232",
      "count": "1"
    },
    "failed_runs": {
      "total_time": "0",
      "count": "0"
    }
  },
  {
    "file": "RPC_test.ml",
    "title": "Jakarta: (mode client) RPC regression tests: misc_protocol",
    "tags": [
      "regression",
      "jakarta",
      "rpc",
      "client",
      "misc_protocol"
    ],
    "successful_runs": {
      "total_time": "12622614",
      "count": "1"
    },
    "failed_runs": {
      "total_time": "0",
      "count": "0"
    }
  },
  {
    "file": "RPC_test.ml",
    "title": "Ithaca: (mode client) RPC tests: network",
    "tags": [
      "ithaca",
      "rpc",
      "client",
      "network"
    ],
    "successful_runs": {
      "total_time": "37332190",
      "count": "1"
    },
    "failed_runs": {
      "total_time": "0",
      "count": "0"
    }
  },
  {
    "file": "RPC_test.ml",
    "title": "Jakarta: (mode light) RPC tests: workers",
    "tags": [
      "jakarta",
      "rpc",
      "light",
      "workers"
    ],
    "successful_runs": {
      "total_time": "16983856",
      "count": "1"
    },
    "failed_runs": {
      "total_time": "0",
      "count": "0"
    }
  },
  {
    "file": "RPC_test.ml",
    "title": "Alpha: (mode light) RPC tests: misc_shell",
    "tags": [
      "alpha",
      "rpc",
      "light",
      "misc_shell"
    ],
    "successful_runs": {
      "total_time": "22166302",
      "count": "1"
    },
    "failed_runs": {
      "total_time": "0",
      "count": "0"
    }
  },
  {
    "file": "RPC_test.ml",
    "title": "Kathmandu: (mode light) RPC tests: chain",
    "tags": [
      "kathmandu",
      "rpc",
      "light",
      "chain"
    ],
    "successful_runs": {
      "total_time": "561946279",
      "count": "1"
    },
    "failed_runs": {
      "total_time": "0",
      "count": "0"
    }
  },
  {
    "file": "RPC_test.ml",
    "title": "Alpha: (mode proxy) RPC regression tests: delegates",
    "tags": [
      "regression",
      "alpha",
      "rpc",
      "proxy",
      "delegates"
    ],
    "successful_runs": {
      "total_time": "29357928",
      "count": "1"
    },
    "failed_runs": {
      "total_time": "0",
      "count": "0"
    }
  },
  {
    "file": "RPC_test.ml",
    "title": "Jakarta: (mode proxy) RPC regression tests: votes",
    "tags": [
      "regression",
      "jakarta",
      "rpc",
      "proxy",
      "votes"
    ],
    "successful_runs": {
      "total_time": "36411315",
      "count": "1"
    },
    "failed_runs": {
      "total_time": "0",
      "count": "0"
    }
  },
  {
    "file": "RPC_test.ml",
    "title": "Alpha: (mode proxy) RPC regression tests: mempool",
    "tags": [
      "regression",
      "alpha",
      "rpc",
      "proxy",
      "mempool"
    ],
    "successful_runs": {
      "total_time": "130479779",
      "count": "1"
    },
    "failed_runs": {
      "total_time": "0",
      "count": "0"
    }
  },
  {
    "file": "RPC_test.ml",
    "title": "Ithaca: (mode proxy) RPC tests: misc_shell",
    "tags": [
      "ithaca",
      "rpc",
      "proxy",
      "misc_shell"
    ],
    "successful_runs": {
      "total_time": "17479438",
      "count": "1"
    },
    "failed_runs": {
      "total_time": "0",
      "count": "0"
    }
  },
  {
    "file": "RPC_test.ml",
    "title": "Kathmandu: (mode proxy) RPC tests: chain",
    "tags": [
      "kathmandu",
      "rpc",
      "proxy",
      "chain"
    ],
    "successful_runs": {
      "total_time": "558427559",
      "count": "1"
    },
    "failed_runs": {
      "total_time": "0",
      "count": "0"
    }
  },
  {
    "file": "RPC_test.ml",
    "title": "Jakarta: (mode proxy_server_data_dir) RPC regression tests: delegates",
    "tags": [
      "regression",
      "jakarta",
      "rpc",
      "proxy_server_data_dir",
      "delegates"
    ],
    "successful_runs": {
      "total_time": "31142450",
      "count": "1"
    },
    "failed_runs": {
      "total_time": "0",
      "count": "0"
    }
  },
  {
    "file": "RPC_test.ml",
    "title": "Alpha: (mode proxy_server_data_dir) RPC tests: network",
    "tags": [
      "alpha",
      "rpc",
      "proxy_server_data_dir",
      "network"
    ],
    "successful_runs": {
      "total_time": "7654412",
      "count": "1"
    },
    "failed_runs": {
      "total_time": "0",
      "count": "0"
    }
  },
  {
    "file": "RPC_test.ml",
    "title": "Jakarta: (mode proxy_server_rpc) RPC regression tests: contracts",
    "tags": [
      "regression",
      "jakarta",
      "rpc",
      "proxy_server_rpc",
      "contracts"
    ],
    "successful_runs": {
      "total_time": "73838137",
      "count": "1"
    },
    "failed_runs": {
      "total_time": "0",
      "count": "0"
    }
  },
  {
    "file": "RPC_test.ml",
    "title": "Kathmandu: (mode proxy_server_rpc) RPC regression tests: contracts",
    "tags": [
      "regression",
      "kathmandu",
      "rpc",
      "proxy_server_rpc",
      "contracts"
    ],
    "successful_runs": {
      "total_time": "73850646",
      "count": "1"
    },
    "failed_runs": {
      "total_time": "0",
      "count": "0"
    }
  },
  {
    "file": "RPC_test.ml",
    "title": "Alpha: (mode proxy_server_rpc) RPC regression tests: votes",
    "tags": [
      "regression",
      "alpha",
      "rpc",
      "proxy_server_rpc",
      "votes"
    ],
    "successful_runs": {
      "total_time": "38240389",
      "count": "1"
    },
    "failed_runs": {
      "total_time": "0",
      "count": "0"
    }
  },
  {
    "file": "RPC_test.ml",
    "title": "Jakarta: (mode proxy_server_rpc) RPC tests: network",
    "tags": [
      "jakarta",
      "rpc",
      "proxy_server_rpc",
      "network"
    ],
    "successful_runs": {
      "total_time": "7575407",
      "count": "1"
    },
    "failed_runs": {
      "total_time": "0",
      "count": "0"
    }
  },
  {
    "file": "RPC_test.ml",
    "title": "Test RPC blacklist @ localhost",
    "tags": [
      "rpc",
      "acl"
    ],
    "successful_runs": {
      "total_time": "6893208",
      "count": "1"
    },
    "failed_runs": {
      "total_time": "0",
      "count": "0"
    }
  },
  {
    "file": "RPC_test.ml",
    "title": "Test RPC no_service_at_valid_prefix @ localhost",
    "tags": [
      "rpc"
    ],
    "successful_runs": {
      "total_time": "6016391",
      "count": "1"
    },
    "failed_runs": {
      "total_time": "0",
      "count": "0"
    }
  },
  {
    "file": "voting.ml",
    "title": "amendment: ithaca -> injected_test (losers: alpha, ithaca)",
    "tags": [
      "amendment",
      "from_ithaca",
      "to_injected_test",
      "loser_alpha",
      "loser_ithaca",
      "injected"
    ],
    "successful_runs": {
      "total_time": "96661868",
      "count": "1"
    },
    "failed_runs": {
      "total_time": "0",
      "count": "0"
    }
  },
  {
    "file": "voting.ml",
    "title": "amendment: alpha -> demo_counter (losers: jakarta)",
    "tags": [
      "amendment",
      "from_alpha",
      "to_demo_counter",
      "loser_jakarta",
      "known"
    ],
    "successful_runs": {
      "total_time": "89278357",
      "count": "1"
    },
    "failed_runs": {
      "total_time": "0",
      "count": "0"
    }
  },
  {
    "file": "tx_rollup.ml",
    "title": "Alpha: RPC (tx_rollups, regression) - inbox",
    "tags": [
      "regression",
      "alpha",
      "tx_rollup",
      "rpc",
      "inbox"
    ],
    "successful_runs": {
      "total_time": "12056557",
      "count": "1"
    },
    "failed_runs": {
      "total_time": "0",
      "count": "0"
    }
  },
  {
    "file": "tx_rollup.ml",
    "title": "Jakarta: RPC (tx_rollups, regression) - inbox",
    "tags": [
      "regression",
      "jakarta",
      "tx_rollup",
      "rpc",
      "inbox"
    ],
    "successful_runs": {
      "total_time": "12266185",
      "count": "1"
    },
    "failed_runs": {
      "total_time": "0",
      "count": "0"
    }
  },
  {
    "file": "tx_rollup.ml",
    "title": "Kathmandu: RPC (tx_rollups, regression) - inbox merkle tree hash",
    "tags": [
      "regression",
      "kathmandu",
      "tx_rollup",
      "rpc",
      "inbox",
      "merkle_tree_hash"
    ],
    "successful_runs": {
      "total_time": "8591525",
      "count": "1"
    },
    "failed_runs": {
      "total_time": "0",
      "count": "0"
    }
  },
  {
    "file": "tx_rollup.ml",
    "title": "Alpha: RPC (tx_rollups, regression) - pending bonded commitments",
    "tags": [
      "regression",
      "alpha",
      "tx_rollup",
      "rpc",
      "commitment",
      "bond"
    ],
    "successful_runs": {
      "total_time": "18894642",
      "count": "1"
    },
    "failed_runs": {
      "total_time": "0",
      "count": "0"
    }
  },
  {
    "file": "tx_rollup.ml",
    "title": "Jakarta: Submit empty batch",
    "tags": [
      "regression",
      "jakarta",
      "tx_rollup",
      "batch",
      "client"
    ],
    "successful_runs": {
      "total_time": "10769498",
      "count": "1"
    },
    "failed_runs": {
      "total_time": "0",
      "count": "0"
    }
  },
  {
    "file": "tx_rollup.ml",
    "title": "Kathmandu: Submit a finalize commitment operation without batch",
    "tags": [
      "regression",
      "kathmandu",
      "tx_rollup",
      "client",
      "fail",
      "finalize"
    ],
    "successful_runs": {
      "total_time": "10427007",
      "count": "1"
    },
    "failed_runs": {
      "total_time": "0",
      "count": "0"
    }
  },
  {
    "file": "tx_rollup.ml",
    "title": "Kathmandu: wrong message path for rejection",
    "tags": [
      "kathmandu",
      "tx_rollup",
      "rejection",
      "batch"
    ],
    "successful_runs": {
      "total_time": "21029228",
      "count": "1"
    },
    "failed_runs": {
      "total_time": "0",
      "count": "0"
    }
  },
  {
    "file": "tx_rollup_node.ml",
    "title": "Alpha: TX_rollup: test if the node is ready",
    "tags": [
      "alpha",
      "tx_rollup",
      "ready",
      "originate"
    ],
    "successful_runs": {
      "total_time": "8880300",
      "count": "1"
    },
    "failed_runs": {
      "total_time": "0",
      "count": "0"
    }
  },
  {
    "file": "tx_rollup_node.ml",
    "title": "Kathmandu: TX_rollup: test if the node is ready",
    "tags": [
      "kathmandu",
      "tx_rollup",
      "ready",
      "originate"
    ],
    "successful_runs": {
      "total_time": "8824563",
      "count": "1"
    },
    "failed_runs": {
      "total_time": "0",
      "count": "0"
    }
  },
  {
    "file": "tx_rollup_node.ml",
    "title": "Jakarta: TX_rollup: deposit ticket from l1 to l2",
    "tags": [
      "jakarta",
      "tx_rollup",
      "deposit",
      "ticket"
    ],
    "successful_runs": {
      "total_time": "17033084",
      "count": "1"
    },
    "failed_runs": {
      "total_time": "0",
      "count": "0"
    }
  },
  {
    "file": "tx_rollup_node.ml",
    "title": "Alpha: TX_rollup: L2 batcher",
    "tags": [
      "alpha",
      "tx_rollup",
      "node",
      "batcher",
      "transaction"
    ],
    "successful_runs": {
      "total_time": "173426862",
      "count": "1"
    },
    "failed_runs": {
      "total_time": "0",
      "count": "0"
    }
  },
  {
    "file": "tx_rollup_node.ml",
    "title": "Kathmandu: TX_rollup: L2 batcher",
    "tags": [
      "kathmandu",
      "tx_rollup",
      "node",
      "batcher",
      "transaction"
    ],
    "successful_runs": {
      "total_time": "173526252",
      "count": "1"
    },
    "failed_runs": {
      "total_time": "0",
      "count": "0"
    }
  },
  {
    "file": "tx_rollup_node.ml",
    "title": "Alpha: TX_rollup: L2 rollup node reorganization",
    "tags": [
      "alpha",
      "tx_rollup",
      "node",
      "reorganization"
    ],
    "successful_runs": {
      "total_time": "38421808",
      "count": "1"
    },
    "failed_runs": {
      "total_time": "0",
      "count": "0"
    }
  },
  {
    "file": "tx_rollup_node.ml",
    "title": "Alpha: TX_rollup: reject messages at position 0 and 1",
    "tags": [
      "alpha",
      "tx_rollup",
      "node",
      "proofs",
      "rejection"
    ],
    "successful_runs": {
      "total_time": "49185555",
      "count": "1"
    },
    "failed_runs": {
      "total_time": "0",
      "count": "0"
    }
  },
  {
    "file": "tx_rollup_node.ml",
    "title": "Jakarta: TX_rollup: reject messages at position 0 and 1",
    "tags": [
      "jakarta",
      "tx_rollup",
      "node",
      "proofs",
      "rejection"
    ],
    "successful_runs": {
      "total_time": "48702398",
      "count": "1"
    },
    "failed_runs": {
      "total_time": "0",
      "count": "0"
    }
  },
  {
    "file": "tx_rollup_node.ml",
    "title": "Kathmandu: TX_rollup: injecting commitments automatically",
    "tags": [
      "kathmandu",
      "tx_rollup",
      "node",
      "commitments"
    ],
    "successful_runs": {
      "total_time": "41920558",
      "count": "1"
    },
    "failed_runs": {
      "total_time": "0",
      "count": "0"
    }
  },
  {
    "file": "tx_rollup_node.ml",
    "title": "Jakarta: TX_rollup: tickets hashes to tickets context",
    "tags": [
      "jakarta",
      "tx_rollup",
      "tickets",
      "context"
    ],
    "successful_runs": {
      "total_time": "29904186",
      "count": "1"
    },
    "failed_runs": {
      "total_time": "0",
      "count": "0"
    }
  },
  {
    "file": "tx_rollup_node.ml",
    "title": "Alpha: TX_rollup: accuser",
    "tags": [
      "alpha",
      "tx_rollup",
      "node",
      "accuser",
      "rejection"
    ],
    "successful_runs": {
      "total_time": "32459538",
      "count": "1"
    },
    "failed_runs": {
      "total_time": "0",
      "count": "0"
    }
  },
  {
    "file": "manager_operations.ml",
    "title": "Alpha: Contract's body illtyped 1",
    "tags": [
      "alpha",
      "precheck",
      "illtyped",
      "origination",
      "typing"
    ],
    "successful_runs": {
      "total_time": "22855459",
      "count": "1"
    },
    "failed_runs": {
      "total_time": "0",
      "count": "0"
    }
  },
  {
    "file": "manager_operations.ml",
    "title": "Kathmandu: Contract's body illtyped 1",
    "tags": [
      "kathmandu",
      "precheck",
      "illtyped",
      "origination",
      "typing"
    ],
    "successful_runs": {
      "total_time": "22723507",
      "count": "1"
    },
    "failed_runs": {
      "total_time": "0",
      "count": "0"
    }
  },
  {
    "file": "manager_operations.ml",
    "title": "Alpha: Simple revelation with a wrong public key",
    "tags": [
      "alpha",
      "reveal",
      "revelation",
      "batch"
    ],
    "successful_runs": {
      "total_time": "36417491",
      "count": "1"
    },
    "failed_runs": {
      "total_time": "0",
      "count": "0"
    }
  },
  {
    "file": "manager_operations.ml",
    "title": "Alpha: Simple transfer counter in the past",
    "tags": [
      "alpha",
      "transaction",
      "transfer"
    ],
    "successful_runs": {
      "total_time": "24516465",
      "count": "1"
    },
    "failed_runs": {
      "total_time": "0",
      "count": "0"
    }
  },
  {
    "file": "manager_operations.ml",
    "title": "Jakarta: Simple transfer with wrong signature",
    "tags": [
      "jakarta",
      "transaction",
      "transfer"
    ],
    "successful_runs": {
      "total_time": "24280640",
      "count": "1"
    },
    "failed_runs": {
      "total_time": "0",
      "count": "0"
    }
  },
  {
    "file": "manager_operations.ml",
    "title": "Ithaca: Simple transfer with wrong signature",
    "tags": [
      "ithaca",
      "transaction",
      "transfer"
    ],
    "successful_runs": {
      "total_time": "23985968",
      "count": "1"
    },
    "failed_runs": {
      "total_time": "0",
      "count": "0"
    }
  },
  {
    "file": "manager_operations.ml",
    "title": "Kathmandu: Simple transfer with not enough gas",
    "tags": [
      "kathmandu",
      "transaction",
      "transfer"
    ],
    "successful_runs": {
      "total_time": "34072190",
      "count": "1"
    },
    "failed_runs": {
      "total_time": "0",
      "count": "0"
    }
  },
  {
    "file": "manager_operations.ml",
    "title": "Jakarta: Simple transfer with not enough fees to cover gas",
    "tags": [
      "jakarta",
      "transaction",
      "transfer"
    ],
    "successful_runs": {
      "total_time": "19862895",
      "count": "1"
    },
    "failed_runs": {
      "total_time": "0",
      "count": "0"
    }
  },
  {
    "file": "manager_operations.ml",
    "title": "Ithaca: Smart contract call with illtyped argument",
    "tags": [
      "ithaca",
      "simple_contract_calls",
      "smart",
      "contract",
      "call"
    ],
    "successful_runs": {
      "total_time": "23741378",
      "count": "1"
    },
    "failed_runs": {
      "total_time": "0",
      "count": "0"
    }
  },
  {
    "file": "manager_operations.ml",
    "title": "Jakarta: Smart contract call that loops/fails with 'not enough gas' at exec",
    "tags": [
      "jakarta",
      "simple_contract_calls",
      "smart",
      "contract",
      "call"
    ],
    "successful_runs": {
      "total_time": "26637068",
      "count": "1"
    },
    "failed_runs": {
      "total_time": "0",
      "count": "0"
    }
  },
  {
    "file": "replace_by_fees.ml",
    "title": "Jakarta: Second op's fees are above replacement fees threshold by 1 mutez",
    "tags": [
      "jakarta",
      "replace",
      "fee",
      "manager"
    ],
    "successful_runs": {
      "total_time": "29717210",
      "count": "1"
    },
    "failed_runs": {
      "total_time": "0",
      "count": "0"
    }
  },
  {
    "file": "replace_by_fees.ml",
    "title": "Kathmandu: Second op's gas descreased by 1, but still no enough replacement fees",
    "tags": [
      "kathmandu",
      "replace",
      "fee",
      "manager"
    ],
    "successful_runs": {
      "total_time": "27743757",
      "count": "1"
    },
    "failed_runs": {
      "total_time": "0",
      "count": "0"
    }
  },
  {
    "file": "replace_by_fees.ml",
    "title": "Alpha: Op2's gas/fee is more important, but fees are not higher than max",
    "tags": [
      "alpha",
      "replace",
      "fee",
      "manager"
    ],
    "successful_runs": {
      "total_time": "27747783",
      "count": "1"
    },
    "failed_runs": {
      "total_time": "0",
      "count": "0"
    }
  },
  {
    "file": "replace_by_fees.ml",
    "title": "Kathmandu: Much more fees in second op, but counter in the future",
    "tags": [
      "kathmandu",
      "replace",
      "fee",
      "manager"
    ],
    "successful_runs": {
      "total_time": "30622425",
      "count": "1"
    },
    "failed_runs": {
      "total_time": "0",
      "count": "0"
    }
  },
  {
    "file": "replace_by_fees.ml",
    "title": "Kathmandu: First operation not applied, second one applied with default fees",
    "tags": [
      "kathmandu",
      "replace",
      "fee",
      "manager"
    ],
    "successful_runs": {
      "total_time": "24308512",
      "count": "1"
    },
    "failed_runs": {
      "total_time": "0",
      "count": "0"
    }
  },
  {
    "file": "sc_rollup.ml",
    "title": "Alpha: observing the correct handling of commitments in the rollup node (non_final_level)",
    "tags": [
      "regression",
      "alpha",
      "sc_rollup",
      "commitment",
      "node",
      "non_final_level"
    ],
    "successful_runs": {
      "total_time": "80237050",
      "count": "1"
    },
    "failed_runs": {
      "total_time": "0",
      "count": "0"
    }
  },
  {
    "file": "views.ml",
    "title": "Alpha: Run views",
    "tags": [
      "regression",
      "alpha",
      "client",
      "michelson"
    ],
    "successful_runs": {
      "total_time": "6979869",
      "count": "1"
    },
    "failed_runs": {
      "total_time": "0",
      "count": "0"
    }
  },
  {
    "file": "runtime_script_failure.ml",
    "title": "Jakarta: Runtime Script Failure: client force",
    "tags": [
      "jakarta",
      "runtime_script_failure"
    ],
    "successful_runs": {
      "total_time": "11849465",
      "count": "1"
    },
    "failed_runs": {
      "total_time": "0",
      "count": "0"
    }
  },
  {
    "file": "deposits_limit.ml",
    "title": "Ithaca: unset deposits limit",
    "tags": [
      "regression",
      "ithaca",
      "deposits_limit"
    ],
    "successful_runs": {
      "total_time": "6829299",
      "count": "1"
    },
    "failed_runs": {
      "total_time": "0",
      "count": "0"
    }
  },
  {
    "file": "large_metadata.ml",
    "title": "Alpha: Large metadata with default limit",
    "tags": [
      "alpha",
      "large_metadata",
      "default"
    ],
    "successful_runs": {
      "total_time": "39389436",
      "count": "1"
    },
    "failed_runs": {
      "total_time": "0",
      "count": "0"
    }
  },
  {
    "file": "large_metadata.ml",
    "title": "Alpha: Large metadata with a small limit",
    "tags": [
      "alpha",
      "large_metadata",
      "limit"
    ],
    "successful_runs": {
      "total_time": "15496908",
      "count": "1"
    },
    "failed_runs": {
      "total_time": "0",
      "count": "0"
    }
  },
  {
    "file": "run_script.ml",
    "title": "Run script with source and sender",
    "tags": [
      "client",
      "michelson"
    ],
    "successful_runs": {
      "total_time": "10643648",
      "count": "1"
    },
    "failed_runs": {
      "total_time": "0",
      "count": "0"
    }
  },
  {
    "file": "client_run_view.ml",
    "title": "Alpha: Run view `value` without input",
    "tags": [
      "alpha",
      "client",
      "michelson",
      "view"
    ],
    "successful_runs": {
      "total_time": "3878490",
      "count": "1"
    },
    "failed_runs": {
      "total_time": "0",
      "count": "0"
    }
  },
  {
    "file": "client_run_view.ml",
    "title": "Kathmandu: Run view calling another contract",
    "tags": [
      "kathmandu",
      "client",
      "michelson",
      "view"
    ],
    "successful_runs": {
      "total_time": "8336127",
      "count": "1"
    },
    "failed_runs": {
      "total_time": "0",
      "count": "0"
    }
  },
  {
    "file": "client_run_view.ml",
    "title": "Jakarta: Run view `loop` with unlimited gas",
    "tags": [
      "jakarta",
      "client",
      "michelson",
      "view"
    ],
    "successful_runs": {
      "total_time": "3717448",
      "count": "1"
    },
    "failed_runs": {
      "total_time": "0",
      "count": "0"
    }
  },
  {
    "file": "governance_dictator.ml",
    "title": "Alpha: governance dictator (mainnet, cooldown)",
    "tags": [
      "alpha",
      "amendment",
      "mainnet",
      "cooldown"
    ],
    "successful_runs": {
      "total_time": "53791741",
      "count": "1"
    },
    "failed_runs": {
      "total_time": "0",
      "count": "0"
    }
  },
  {
    "file": "test_contract_bls12_381.ml",
    "title": "Alpha: Bls12_381 contract primitives, g1: negate",
    "tags": [
      "regression",
      "alpha",
      "michelson",
      "crypto",
      "contract",
      "bls12_381",
      "g1",
      "negate"
    ],
    "successful_runs": {
      "total_time": "14954680",
      "count": "1"
    },
    "failed_runs": {
      "total_time": "0",
      "count": "0"
    }
  },
  {
    "file": "test_contract_bls12_381.ml",
    "title": "Alpha: Bls12_381 contract primitives: pairing_check(pos, neg)",
    "tags": [
      "regression",
      "alpha",
      "michelson",
      "crypto",
      "contract",
      "bls12_381",
      "pairing_check"
    ],
    "successful_runs": {
      "total_time": "113624935",
      "count": "1"
    },
    "failed_runs": {
      "total_time": "0",
      "count": "0"
    }
  }
]